…
Using R, we will analyze Facebook Stock data and seek to answer this question!

This data is taken from the NASDAQ website. This dataset I am working with includes Facebooks stock data for the past 3 years.

Data Curation, Parsing, and Management

Lets then load in the data using the tidyverse library. You can learn more about how to use tidyverse at https://www.tidyverse.org if you need more clarification!

Note, I include stringsAsFactors=FALSE inside the read.csv call to make sure the columns are not passed as factors. This lets us tidy data easier!

fb_df <- read.csv("HistoricalQuotes.csv", stringsAsFactors=FALSE) #reading in the csv dataset file
fb_df %>% 
  as_data_frame() #using as_data_frame() so it doesn't print out the entire frame

## # A tibble: 756 x 6
##    date      close   volume  open  high   low
##    <chr>     <dbl>    <int> <dbl> <dbl> <dbl>
##  1 5/9/2018    183 23266280   180   183   179
##  2 5/8/2018    179 15482580   178   179   177
##  3 5/7/2018    178 18302910   177   180   177
##  4 5/4/2018    177 17668270   173   177   173
##  5 5/3/2018    174 23908500   175   176   172
##  6 5/2/2018    176 29812020   174   178   174
##  7 5/1/2018    174 26001150   172   174   170
##  8 4/30/2018   172 20662060   174   176   172
##  9 4/27/2018   174 29773640   177   177   173
## 10 4/26/2018   174 77391810   173   176   171
## # ... with 746 more rows
Above, you can see the dataset. Just looking at it, you can see it has 6 columns and 756 rows. If you may be wondering why some dates are missing, it is because the stock market is not open on the weekends!

When looking at the data set, we can see that some column names arent that descriptive - someone who doesnt know about stocks may have a hard time understanding what these numbers mean.

Lets rename these columns using the rename function and also reorder the columns in a more logical sense using the select function!

fb_df_updated <- fb_df %>% 
  rename(Closing_Price = close,
         Volume_of_Shares_Traded = volume,
         Opening_Price = open) %>% #renamed columns
  select(date, Volume_of_Shares_Traded, Opening_Price, Closing_Price, high, low) %>% #only selecting certain columns
  as_data_frame()
fb_df_updated

## # A tibble: 756 x 6
##    date      Volume_of_Shares_Tra~ Opening_Price Closing_Price  high   low
##    <chr>                     <int>         <dbl>         <dbl> <dbl> <dbl>
##  1 5/9/2018               23266280           180           183   183   179
##  2 5/8/2018               15482580           178           179   179   177
##  3 5/7/2018               18302910           177           178   180   177
##  4 5/4/2018               17668270           173           177   177   173
##  5 5/3/2018               23908500           175           174   176   172
##  6 5/2/2018               29812020           174           176   178   174
##  7 5/1/2018               26001150           172           174   174   170
##  8 4/30/2018              20662060           174           172   176   172
##  9 4/27/2018              29773640           177           174   177   173
## 10 4/26/2018              77391810           173           174   176   171
## # ... with 746 more rows
Lets split up this date into months, days, and years through the separate method. We should also convert these numbers into integers for later analysis using the type_convert method - this parses the character attributes into integers.

Now, lets also convert the date columns to date objects to allow for easier analysis. This is done by parsing the  values into a different type of  through using as.Date() and specifying the format of %d/%m%Y to match the format of the  originally in the Date column.

fb_df_dates <- fb_df_updated %>%
  mutate(Date = date) %>%
  separate(date, c("Month", "Day", "Year"), "/") %>% #separating the date by "/"
  type_convert(cols(Month=col_integer(), Day=col_integer(), Year= col_integer() )) %>% #converting these new columns to integers
  mutate(Date=as.Date(Date, format = "%m/%d/%Y")) %>% #converting Date to a date object
  select(Date, Month, Day, Year, Volume_of_Shares_Traded, Opening_Price, Closing_Price, high, low) %>%
  as_data_frame()
  
fb_df_dates

## # A tibble: 756 x 9
##    Date       Month   Day  Year Volume_of_Shares_Traded Opening_Price
##    <date>     <int> <int> <int>                   <int>         <dbl>
##  1 2018-05-09     5     9  2018                23266280           180
##  2 2018-05-08     5     8  2018                15482580           178
##  3 2018-05-07     5     7  2018                18302910           177
##  4 2018-05-04     5     4  2018                17668270           173
##  5 2018-05-03     5     3  2018                23908500           175
##  6 2018-05-02     5     2  2018                29812020           174
##  7 2018-05-01     5     1  2018                26001150           172
##  8 2018-04-30     4    30  2018                20662060           174
##  9 2018-04-27     4    27  2018                29773640           177
## 10 2018-04-26     4    26  2018                77391810           173
## # ... with 746 more rows, and 3 more variables: Closing_Price <dbl>,
## #   high <dbl>, low <dbl>

Since we now have a nice data frame, lets begin the analysis with a plot of how the stock price changes across years using ggplot2. You can learn more about ggplot2 here !

Closing Price is the price that is displayed since it is the indication of how well or how poorly the stock performed during the day. Because of this, we can get rid of columns that are not as important in the data frame such as high and low.

fb_df_cleaned <- fb_df_dates %>%
  select(Date, Month, Day, Year, Volume_of_Shares_Traded, Opening_Price, Closing_Price) %>% #dropping low and high columns
  as_data_frame()
  
fb_df_cleaned

## # A tibble: 756 x 7
##    Date       Month   Day  Year Volume_of_Shares_Traded Opening_Price
##    <date>     <int> <int> <int>                   <int>         <dbl>
##  1 2018-05-09     5     9  2018                23266280           180
##  2 2018-05-08     5     8  2018                15482580           178
##  3 2018-05-07     5     7  2018                18302910           177
##  4 2018-05-04     5     4  2018                17668270           173
##  5 2018-05-03     5     3  2018                23908500           175
##  6 2018-05-02     5     2  2018                29812020           174
##  7 2018-05-01     5     1  2018                26001150           172
##  8 2018-04-30     4    30  2018                20662060           174
##  9 2018-04-27     4    27  2018                29773640           177
## 10 2018-04-26     4    26  2018                77391810           173
## # ... with 746 more rows, and 1 more variable: Closing_Price <dbl>
…
As you can see, it looks exactly the same so daily prices have not different much at all!

Another way we can anticipate a good time to sell the stock is by looking at the difference between the opening and closing prices of each day ie. closing price - opening price. If the stock has a consistently negative value of closing price - opening price, that is typically an indicator for the investor to sell and back out. However, some investors choose to bag - hold, meaning that while they are at a loss, they keep holding the stock hoping that it will go back up. This is not something many brokers recommend - they typically say cut your losses. So in a way to minimize losses, we can calculate and analyze the plot of the closing/opening price difference!

So, lets make a new data frame for this:

fb_df_diff <- fb_df_cleaned %>%
  mutate(Close_Open_Diff = (Closing_Price - Opening_Price)) %>% #making a new column with the Closing_Price - Opening_Price
  as_data_frame()
fb_df_diff

## # A tibble: 756 x 8
##    Date       Month   Day  Year Volume_of_Shares_Traded Opening_Price
##    <date>     <int> <int> <int>                   <int>         <dbl>
##  1 2018-05-09     5     9  2018                23266280           180
##  2 2018-05-08     5     8  2018                15482580           178
##  3 2018-05-07     5     7  2018                18302910           177
##  4 2018-05-04     5     4  2018                17668270           173
##  5 2018-05-03     5     3  2018                23908500           175
##  6 2018-05-02     5     2  2018                29812020           174
##  7 2018-05-01     5     1  2018                26001150           172
##  8 2018-04-30     4    30  2018                20662060           174
##  9 2018-04-27     4    27  2018                29773640           177
## 10 2018-04-26     4    26  2018                77391810           173
## # ... with 746 more rows, and 2 more variables: Closing_Price <dbl>,
## #   Close_Open_Diff <dbl>
…
##          term     estimate    std.error statistic       p.value
## 1 (Intercept) -59864.96042 1029.7318937 -58.13645 8.130006e-281
## 2        Year     29.75524    0.5106909  58.26469 2.088221e-281

From this, we can see that the stock grows by about $29.75524 per year!

We can also look at the residuals for more information. Residuals are basically the difference between the observed value of the dependent variable and the predicted value. We can look at these using the augment() function.

fb_fit %>%
  augment() %>% #augmenting to see more information about the model
  as_data_frame()

## # A tibble: 756 x 9
##    Closing_Price  Year .fitted .se.fit .resid    .hat .sigma   .cooksd
##            <dbl> <int>   <dbl>   <dbl>  <dbl>   <dbl>  <dbl>     <dbl>
##  1           183  2018     181   0.971   1.54 0.00534   13.3 0.0000360
##  2           179  2018     181   0.971  -2.20 0.00534   13.3 0.0000740
##  3           178  2018     181   0.971  -3.15 0.00534   13.3 0.000152 
##  4           177  2018     181   0.971  -4.51 0.00534   13.3 0.000310 
##  5           174  2018     181   0.971  -7.10 0.00534   13.3 0.000769 
##  6           176  2018     181   0.971  -5.05 0.00534   13.3 0.000389 
##  7           174  2018     181   0.971  -7.26 0.00534   13.3 0.000804 
##  8           172  2018     181   0.971  -9.12 0.00534   13.3 0.00127  
##  9           174  2018     181   0.971  -7.53 0.00534   13.3 0.000865 
## 10           174  2018     181   0.971  -6.96 0.00534   13.3 0.000739 
## # ... with 746 more rows, and 1 more variable: .std.resid <dbl>
…
